module gitlab.com/ikramanop/best-hack-2022-stonks-api

go 1.17

require (
	github.com/asvvvad/exchange v0.0.0-20200622145202-a6da1ed4965a
	github.com/go-openapi/errors v0.20.2
	github.com/go-openapi/loads v0.21.1
	github.com/go-openapi/runtime v0.23.3
	github.com/go-openapi/spec v0.20.4
	github.com/go-openapi/strfmt v0.21.2
	github.com/go-openapi/swag v0.21.1
	github.com/go-openapi/validate v0.21.0
	github.com/golang-migrate/migrate/v4 v4.15.1
	github.com/jackc/pgx/v4 v4.10.1
	github.com/jessevdk/go-flags v1.5.0
	github.com/joho/godotenv v1.4.0
	github.com/piquette/finance-go v1.0.0
	github.com/robfig/cron/v3 v3.0.1
	github.com/spf13/cobra v1.4.0
	golang.org/x/net v0.0.0-20220127200216-cd36cc0744dd
)

require (
	github.com/PuerkitoBio/purell v1.1.1 // indirect
	github.com/PuerkitoBio/urlesc v0.0.0-20170810143723-de5bf2ad4578 // indirect
	github.com/asaskevich/govalidator v0.0.0-20210307081110-f21760c49a8d // indirect
	github.com/docker/go-units v0.4.0 // indirect
	github.com/go-openapi/analysis v0.21.2 // indirect
	github.com/go-openapi/jsonpointer v0.19.5 // indirect
	github.com/go-openapi/jsonreference v0.19.6 // indirect
	github.com/go-stack/stack v1.8.1 // indirect
	github.com/hashicorp/errwrap v1.0.0 // indirect
	github.com/hashicorp/go-multierror v1.1.0 // indirect
	github.com/inconshreveable/mousetrap v1.0.0 // indirect
	github.com/jackc/chunkreader/v2 v2.0.1 // indirect
	github.com/jackc/pgconn v1.8.0 // indirect
	github.com/jackc/pgio v1.0.0 // indirect
	github.com/jackc/pgpassfile v1.0.0 // indirect
	github.com/jackc/pgproto3/v2 v2.0.7 // indirect
	github.com/jackc/pgservicefile v0.0.0-20200714003250-2b9c44734f2b // indirect
	github.com/jackc/pgtype v1.6.2 // indirect
	github.com/josharian/intern v1.0.0 // indirect
	github.com/lib/pq v1.10.0 // indirect
	github.com/mailru/easyjson v0.7.7 // indirect
	github.com/mitchellh/mapstructure v1.4.3 // indirect
	github.com/oklog/ulid v1.3.1 // indirect
	github.com/opentracing/opentracing-go v1.2.0 // indirect
	github.com/patrickmn/go-cache v2.1.0+incompatible // indirect
	github.com/shopspring/decimal v1.2.0 // indirect
	github.com/spf13/pflag v1.0.5 // indirect
	go.mongodb.org/mongo-driver v1.8.3 // indirect
	go.uber.org/atomic v1.6.0 // indirect
	golang.org/x/crypto v0.0.0-20210921155107-089bfa567519 // indirect
	golang.org/x/sys v0.0.0-20211216021012-1d35b9e2eb4e // indirect
	golang.org/x/text v0.3.7 // indirect
	golang.org/x/xerrors v0.0.0-20200804184101-5ec99f83aff1 // indirect
	gopkg.in/yaml.v2 v2.4.0 // indirect
)
